ASIN,Title,Authors,PurchaseDate
"B001GSTOAM","Clean Code: A Handbook of Agile Software Craftsmanship (Robert C. Martin Series)","Martin, Robert C.","30.5.2012"
"B002ACP2AY","Beginning Scala","Pollak, David","2.6.2012"
"B0039OVIAK","97 Things Every Programmer Should Know: Collective Wisdom from the Experts","Henney, Kevlin","8.4.2016"
"B003VIWS0I","A Practical Guide to SysML: Systems Modeling Language","Moore, Alan","25.7.2011"
"B0043239Y0","Oracle SOA Suite 11g Handbook (Oracle Press)","Jellema, Lucas","3.4.2014"
"B0043D2DNM","XQuery","Walmsley, Priscilla","10.4.2014"
"B004OVEY4O","Die Herren von Winterfell (Das Lied von Eis und Feuer, Band 1)","Martin, George R.R.","11.1.2015"
"B004P1JAZQ","Die Königin der Drachen (Das Lied von Eis und Feuer, Band 6)","Martin, George R.R.","13.1.2015"
"B004P1JCF4","Sturm der Schwerter (Das Lied von Eis und Feuer, Band 5)","Martin, George R.R.","13.1.2015"
"B004Q3QRMW","Die facebook-Falle: Wie das soziale Netzwerk unser Leben verkauft (German Edition)","Adamek, Sascha","27.5.2012"
"B004SIYZV0","Ecce homo, Wie man wird, was man ist (German Edition)","Nietzsche, Friedrich Wilhelm","30.5.2012"
"B004UBA8SY","Sagen des klassischen Altertums (German Edition)","Schwab, Gustav","23.7.2012"
"B004UBDXPY","Einstein - Einblicke in seine Gedankenwelt (German Edition)","Moszkowski, Alexander","6.9.2012"
"B004VSPXW2","Microsoft Expression Blend 4 Unleashed","Williams, Brennon","6.10.2019"
"B004Y50TX0","Microsoft Expression Blend Unleashed","Williams, Brennon","6.10.2019"
"B004Z1FTXS","Programming in Scala: A Comprehensive Step-by-Step Guide","Odersky, Martin","20.2.2012"
"B004ZG12CA","Utopia (German Edition)","Morus, Thomas","6.9.2012"
"B0056ADMZE","Perry Rhodan 2600: Das Thanatos-Programm: Perry Rhodan-Zyklus Neuroversum (Perry Rhodan-Die Gröβte Science- Fiction- Serie) (German Edition)","Anton, Uwe","30.5.2012"
"B005BR2IXE","Unity 3D Game Development by Example Beginner's Guide","Creighton, Ryan Henson","22.4.2015"
"B005EI8686","Jenkins: The Definitive Guide: Continuous Integration for the Masses","Smart, John Ferguson","8.12.2017"
"B005KKQ4XC","Getting Things Done: How to achieve stress-free productivity","Allen, David","25.9.2014"
"B005VQ8SPC","Business Process Driven SOA using BPMN and BPEL","Juric, Matjaz B.","26.4.2014"
"B00628N4OS","ImageMagick Tricks: Web Image Effects from the Command Line and PHP","Salehi, Sohail","11.11.2019"
"B00683GXUO","The Art of R Programming: A Tour of Statistical Software Design","Matloff, Norman","19.2.2019"
"B006AZZV26","Enterprise Architecture as Strategy: Creating a Foundation for Business Execution","Ross, Jeanne W.","12.5.2012"
"B006N4WX66","Railo 3 Beginner’s Guide","Michaels, Jordan","20.3.2014"
"B00746IX66","Die Macht der Disziplin: Wie wir unseren Willen trainieren können (German Edition)","Baumeister, Roy F.","22.10.2016"
"B00794TAUG","Domain-Driven Design: Tackling Complexity in the Heart of Software","Evans, Eric","27.9.2016"
"B007A588FW","Zeit der Krähen (Das Lied von Eis und Feuer, Band 7)","Martin, George R.R.","13.1.2015"
"B007IUNEUS","NoSQL Einführung - CouchDB, MongoDB und Redis (German Edition)","Kurowski, Oliver","17.1.2016"
"B007JL1X4U","Gratis Comic Tag Magazin 1/2012 (German Edition)","Gratis Comic Tag","30.5.2012"
"B007JWDMIE","Scala for the Impatient","Horstmann, Cay S.","11.4.2012"
"B007LB5MF4","A Game of Thrones: The Graphic Novel: Volume One","Martin, George R. R.","13.1.2015"
"B007MQLL4E","Enterprise Integration Patterns: Designing, Building, and Deploying Messaging Solutions (Addison-Wesley Signature Series (Fowler))","Hohpe, Gregor","17.3.2015"
"B007N6ZMJ8","Die dunkle Königin (Das Lied von Eis und Feuer, Band 8)","Martin, George R.R.","20.1.2015"
"B007NXDI6U","Gratis Comic Tag Magazin 2/2012 (German Edition)","Gratis Comic Tag","30.5.2012"
"B007Q4H6KK","Amazon Elastic Compute Cloud (EC2) Getting Started Guide","Amazon Web Services","29.3.2014"
"B007Q4H9JI","Amazon Elastic Compute Cloud (EC2) User Guide for Linux Instances","Amazon Web Services","29.3.2014"
"B007Q4VYDK","Amazon Simple Storage Service (S3) Developer Guide","Amazon Web Services","29.3.2014"
"B007Q4XQEU","Amazon Simple Storage Service (S3) Getting Started Guide","Amazon Web Services","29.3.2014"
"B007S28HJY","Amazon Route 53 Developer Guide","Amazon Web Services","29.3.2014"
"B007S28IUW","AWS CloudFormation User Guide","Amazon Web Services","29.3.2014"
"B007S2GEZ8","Amazon Relational Database Service (RDS) User Guide","Amazon Web Services","29.3.2014"
"B007S2HHEU","Amazon Simple Storage Service (S3) Console User Guide","Amazon Web Services","29.3.2014"
"B007S3HYGK","Der Sohn des Greifen (Das Lied von Eis und Feuer, Band 9)","Martin, George R.R.","1.2.2015"
"B007S3WJYW","AWS Identity and Access Management (IAM) User Guide","Amazon Web Services","29.3.2014"
"B007S4525E","Amazon Virtual Private Cloud (VPC) Network Administrator Guide","Amazon Web Services","29.3.2014"
"B007TUGKM6","XAML für alle(s) (Das XAML-Buch 1) (German Edition)","Reuter, Peggy","6.10.2019"
"B0081GLBYO","Skalierbare Softwaresysteme – Design, Betrieb und Optimierungspotenziale (German Edition)","Pichler, Michael","23.4.2015"
"B0082C7CJ0","Ein Tanz mit Drachen (Das Lied von Eis und Feuer, Band 10)","Martin, George R.R.","21.2.2015"
"B0083RVAJW","The Way to Go: A Thorough Introduction to the Go Programming Language","Balbaert, Ivo","27.1.2018"
"B00885X240","Jenkins Continuous Integration Cookbook","Berg, Alan Mark","12.2.2017"
"B008A3UOIM","Erstellung eines Kindle-Buches (German Edition)","Kindle Direct Publishing","3.11.2014"
"B008JWPVI2","Learning Quartz Composer: A Hands-On Guide to Creating Motion Graphics with Quartz Composer","Robinson, Graham","9.4.2016"
"B008Q05NWQ","Einfach managen: Komplexität vermeiden, reduzieren und beherrschen (German Edition)","Brandes, Dieter","9.5.2015"
"B009ERRWI8","LMMS: A Complete Guide to Dance Music Production","Earl, David","7.2.2016"
"B00B9JQTCO","The Logstash Book","Turnbull, James","12.2.2017"
"B00BJ5GIVU","C++ - Kurzporträt einer zeitlosen Sprache (German Edition)","Jansen, Rudolf ","8.5.2013"
"B00BLS4T3Y","Microsoft Visual Basic 2010 - Das Entwicklerbuch (German Edition)","Löffelmann, Klaus","20.12.2015"
"B00BLS4XOY","Oracle PL/SQL kurz & gut (O'Reillys Taschenbibliothek) (German Edition)","Feuerstein, Steven","20.12.2015"
"B00BVGFQS8","R by Example (Use R!)","Albert, Jim","21.1.2019"
"B00C1SF9K0","Einführung in R: Ein Kochbuch zur statistischen Datenanalyse mit R (German Edition)","Faes, Günter","3.1.2019"
"B00C7YGBAA","C# 5.0 kurz & gut (German Edition)","Albahari, Joseph","20.4.2015"
"B00CO5TGEK","Messen mit dem Smartphone (German Edition)","Berndt, Hans-Joachim","8.8.2013"
"B00CYXVSAC","Der Allesverkäufer: Jeff Bezos und das Imperium von Amazon (German Edition)","Stone, Brad","9.4.2016"
"B00DC5YP10","Classic Game Design: From Pong to Pac-Man with Unity","Lanzinger, Franz","23.4.2015"
"B00DFYRUS8","Unity 4.x Cookbook","Smith, Matt","14.12.2014"
"B00DMOOTBM","HTML5 und 3D Browsergame Frameworks mit JavaScript: Das Praxisbuch für JavaScript-Entwickler (German Edition)","Schenk, Manuel","17.1.2016"
"B00DTRC4SW","Der Heckenritter von Westeros: Das Urteil der Sieben (German Edition)","Martin, George R.R.","13.1.2015"
"B00DTV9JH2","Game Networking for Beginners with Unity3D","Grant, Laurence","22.4.2015"
"B00DWI69FM","Jenkins kurz & gut (O'Reillys Taschenbibliothek) (German Edition)","Behrendt, Mario","20.7.2016"
"B00E6BW4I0","Amazon Redshift Database Developer Guide","Amazon Web Services","29.3.2014"
"B00E8IRUDK","Writing Effective User Stories: As a User, I Can Express a Business Need in User Story Format To Get the IT Solution I Need (Business Analysis Fundamentals - Simply Put! Book 4)","Hathaway, Thomas","26.3.2015"
"B00ENFSV2M","Max und Moritz - Eine Bubengeschichte in sieben Streichen: Vollständige und kolorierte Fassung (Wilhelm Busch bei Null Papier 1) (German Edition)","Busch, Wilhelm","19.3.2014"
"B00EUDPXXM","Dokumentation in agilen Projekten: Lösungsmuster für ein bedarfsgerechtes Vorgehen (German Edition)","Rüping, Andreas","26.3.2015"
"B00EUESQNU","Gradle: Ein kompakter Einstieg in das Build-Management-System (German Edition)","Baumann, Joachim","13.2.2017"
"B00FFUL9LY","Learning C# by Developing Games with Unity 3D Beginner's Guide","Norton, Terry","23.4.2015"
"B00G3YK77I","Groovy 2 Cookbook","Adamovich, Andrey","16.2.2017"
"B00GC2LKOK","Learn R in a Day","Murray, Steven","12.1.2019"
"B00GMT1X9U","Python & XML: XML Processing with Python","Jones, Christopher A.","8.4.2016"
"B00GXRSVF0","Kraftwerk: Die unautorisierte Biografie (German Edition)","Buckley, David","3.7.2017"
"B00HL2GOD2","Unity Multiplayer Games","Stagner, Alan R.","23.4.2015"
"B00HRSOOFA","Wie ich die Dinge geregelt kriege: Selbstmanagement für den Alltag (German Edition)","Allen, David","25.9.2014"
"B00I9GR4UG","Programming Groovy 2: Dynamic Productivity for the Java Developer (Pragmatic Programmers)","Subramaniam, Venkat","13.2.2017"
"B00IUJWX30","Das Blender-Buch: 3D-Grafik und Animation mit Blender (German Edition)","Wartmann, Carsten","11.1.2015"
"B00IZ6P1KU","D3 Tips and Tricks v 3.x: Interactive Data Visualization in a Web Browser","Maclean, Malcolm","20.12.2015"
"B00J3N3B6A","Unity 2D Game Development","Calabrese, Dave","20.4.2015"
"B00J9B1IP2","Creating E-Learning Games with Unity","Horachek, David","23.4.2015"
"B00JRGCFLA","Command Line Kung Fu: Bash Scripting Tricks, Linux Shell Programming Tips, and Bash One-liners","Cannon, Jason","21.3.2016"
"B00JUI6LQU","Thinking in CSS","Shenoy, Aravind","21.3.2016"
"B00JW0T58W","C# von Kopf bis Fuß (German Edition)","Stellman, Andrew","20.4.2015"
"B00K0M6JQC","The Dark Net","Bartlett, Jamie","13.4.2016"
"B00KMJLWDS","Learn Python in One Hour: Programming by Example","Volkman, Victor R.","13.3.2017"
"B00L2EBH00","C# Game Programming Cookbook for Unity 3D","Murray, Jeff  W.","22.4.2015"
"B00LNAKX9E","Requirements Engineering für die agile Softwareentwicklung: Methoden, Techniken und Strategien (German Edition)","Bergsmann, Johannes","26.3.2015"
"B00LRROTI4","The Docker Book: Containerization is the new virtualization","Turnbull, James","21.3.2016"
"B00LX6D0PM","Programming Windows Store Apps with HTML, CSS, and JavaScript (Developer Reference)","Brockschmidt, Kraig","21.12.2015"
"B00LXG6QXU","Komplexität im Management 2: InFormation (German Edition)","Pruckner, Maria","9.5.2015"
"B00M3G3SQ2","Groovy – kurz & gut (German Edition)","Staudemeyer, Jörg","20.7.2016"
"B00M6N1A3U","Unity 4 Game Development HOTSHOT","Wittayabundit, Jate","24.4.2015"
"B00MIF2ANK","Clean Code - Refactoring, Patterns, Testen und Techniken für: Deutsche Ausgabe (German Edition)","Martin, Robert C.","21.3.2016"
"B00NAZLERA","Simplicity - Die Kunst, die Komplexität zu reduzieren (German Edition)","Weibel, Benedikt","9.5.2015"
"B00NOQQZ1A","Westeros: Die Welt von Eis und Feuer - GAME OF THRONES - [Bildband] (German Edition)","Martin, George R.R.","16.3.2015"
"B00O0FY73C","The World of Ice and Fire: The Untold History of Westeros and the Game of Thrones","Martin, George R.R.","9.3.2015"
"B00O18YI4G","Evernote: 101 Evernote Hacks! Become An Everyone Ninja And Accomplish Any Goal, Smash Any Task, And Crush Life (Evernote - Your Complete Guide to Mastering ... - Evernote for Beginners - Evernote App)","Bracht, Jason","22.10.2014"
"B00O43B5Q2","Electri_City: Elektronische Musik aus Düsseldorf (suhrkamp taschenbuch) (German Edition)","Esch, Rüdiger","3.7.2017"
"B00PJ8YKRM","Learning Agile: Understanding Scrum, XP, Lean, and Kanban","Stellman, Andrew","11.1.2015"
"B00PWY2A0M","Mastering Massive Complexity: Inside the Gong Dao Bei, the Path to Transformation","Johnson, Don","9.5.2015"
"B00PZ8V8WG","Schnelleinstieg in die mobile Entwicklung für Google Android und Apple iOS: Webapps. Native mobile Apps. Analytics. (German Edition)","Masters, Digital","11.1.2015"
"B00QAMMHLM","Learning Ansible","Mohaan, Madhurranjan","12.7.2017"
"B00QB775PO","Wie Google tickt - How Google Works (German Edition)","Schmidt, Eric","9.4.2016"
"B00QIF4QB0","MQTT im IoT: Einstieg in die M2M-Kommunikation (shortcuts 123) (German Edition)","Obermaier, Dominik","3.3.2017"
"B00QIUTCJ6","Elon Musk: Wie Elon Musk die Welt verändert – Die Biografie (German Edition)","Vance, Ashlee","9.4.2016"
"B00QJDYKM6","Understanding Context: Environment, Language, and Information Architecture","Hinton, Andrew","11.1.2015"
"B00QV6QVA0","R: Einführung durch angewandte Statistik (Pearson Studium - Scientific Tools) (German Edition)","Hatzinger, Reinhold","3.1.2019"
"B00QV6QVVE","Java lernen mit BlueJ: Eine Einführung in die objektorientierte Programmierung (Pearson Studium - Informatik Schule) (German Edition)","Barnes, David J.","24.4.2015"
"B00R3ALBCG","Handbuch zum Testen von Web- und Mobile-Apps: Testverfahren, Werkzeuge, Praxistipps (Xpert.press) (German Edition)","Klaus Franz","11.1.2015"
"B00R3CDJRY","Linked Enterprise Data: Management und Bewirtschaftung vernetzter Unternehmensdaten mit Semantic Web Technologien (X.media.press) (German Edition)","Tassilo Pellegrini","11.1.2015"
"B00R9JPDN4","Python: Learn Python in One Day and Learn It Well. Python for Beginners with Hands-on Project. (Learn Coding Fast with Hands-On Project Book 1)","Publishing, LCF","8.4.2016"
"B00RP13BM6","Continuous Delivery and DevOps – A Quickstart Guide - Second Edition","Swartout, Paul","31.3.2017"
"B00SL9F4E4","Orchestrating Docker","Holla, Shrikrishna","9.4.2016"
"B00SLXVBC4","Elasticsearch: The Definitive Guide: A Distributed Real-Time Search and Analytics Engine","Gormley, Clinton","30.1.2020"
"B00SYPYMFW","Core Java for the Impatient","Horstmann, Cay S.","21.3.2016"
"B00T0C8EWA","Jenkins Continuous Integration Cookbook - Second Edition","Berg,  Alan Mark","12.2.2017"
"B00TTZ4I46","Elasticsearch: Clientnutzung, Datenvisualisierung und Apache Lucene (shortcuts 132) (German Edition)","Hopf, Florian","22.12.2015"
"B00UVB2TOI","Mastering Complexity: Adding Coherence Throughout Your Business with Dependency Structure Spreadsheets","Denker, Stephen","9.5.2015"
"B00UZAHQPM","Programmieren mit R (Statistik und ihre Anwendungen) (German Edition)","Uwe Ligges","21.1.2019"
"B00V20IFDG","Data Visualization with JavaScript","Thomas, Stephen A.","21.12.2015"
"B00VAYCHL0","R Packages: Organize, Test, Document, and Share Your Code","Wickham, Hadley","21.1.2019"
"B00VKAGY5E","Performance Testing with JMeter - Second Edition","Erinle, Bayo","13.3.2017"
"B00WG7NQF6","Open Source Continuous Integration und Testing (German Edition)","Berger, Marco","12.2.2017"
"B00WJ049VU","Automate the Boring Stuff with Python: Practical Programming for Total Beginners","Sweigart, Al","5.3.2020"
"B00WVH5SY8","Ansible: Up and Running: Automating Configuration Management and Deployment the Easy Way","Hochstein, Lorin","12.7.2017"
"B00XCF9VCI","DevOps: A Software Architect's Perspective (SEI Series in Software Engineering)","Bass, Len","31.3.2017"
"B00ZBYPJEW","Dynamic Documents with R and knitr (Chapman & Hall/CRC The R Series Book 29)","Xie, Yihui","21.1.2019"
"B00ZGRS4XM","Docker: Up & Running: Shipping Reliable Containers in Production","Matthias, Karl","25.3.2016"
"B00ZPJWBL2","Design Principles for Process-driven Architectures Using Oracle BPM and SOA Suite 12c","Juric,  Matjaz B.","12.2.2017"
"B01061QAEW","Mastering Jenkins","McAllister, Jonathan","12.2.2017"
"B010N3PZLW","Spiele programmieren mit Unity (mitp für Kids) (German Edition)","Schumann, Hans-Georg","10.12.2015"
"B011J6AP26","How To Program -- Amazon Echo: Design, Development and Testing Alexa Skills","Jaquinta, Jo","3.3.2017"
"B014K22A9C","R für Einsteiger: Einführung in die Statistiksoftware für die Sozialwissenschaften. Mit Online-Material (German Edition)","Luhmann, Maike","3.1.2019"
"B014STY7FW","Ich war ein Roboter: Electric Drummer bei Kraftwerk (German Edition)","Flür, Wolfgang","3.7.2017"
"B016DHQSM2","Storytelling with Data: A Data Visualization Guide for Business Professionals","Knaflic, Cole Nussbaumer","21.3.2016"
"B016DTN8L4","Mehr Hacking mit Python: Eigene Tools entwickeln für Hacker und Pentester (German Edition)","Seitz, Justin","8.4.2016"
"B016G55NOU","Ansible for DevOps: Server and configuration management for humans","Geerling, Jeff","12.7.2017"
"B016MS59O0","Visual Storytelling: Visuelles Erzählen in PR und Marketing (Basics) (German Edition)","Sammer, Petra","21.3.2016"
"B017AH8H7I","Python Playground: Geeky Projects for the Curious Programmer","Venkitachalam, Mahesh","8.2.2020"
"B017ULUM0E","Microservices: Grundlagen flexibler Softwarearchitekturen (German Edition)","Wolff, Eberhard","21.3.2016"
"B0184N7WWS","The Go Programming Language (Addison-Wesley Professional Computing Series)","Donovan, Alan A. A.","27.1.2018"
"B018KC4B2C","Quality Control with R: An ISO Standards Approach (Use R!)","Cano, Emilio L.","21.1.2019"
"B018R71KJ2","Oracle SOA Suite 12c Administrator's Guide","Pareek, Arun","12.2.2017"
"B018UXJ9GE","XQuery: Search Across a Variety of XML Data","Walmsley, Priscilla","16.12.2016"
"B018UXJ9RI","Python Crash Course: A Hands-On, Project-Based Introduction to Programming","Matthes, Eric","8.2.2020"
"B0196U24VW","Das ZickZack-Prinzip: Alfred Hilsberg - ein Leben für den Underground (German Edition)","Meueler, Christof","3.7.2017"
"B019CPQTTE","Programmieren lernen mit Go: Eine praktische Einführung (German Edition)","Isensee, Bastian","26.1.2018"
"B019HRGOPQ","You Don't Know JS: ES6 & Beyond","Simpson, Kyle","21.3.2016"
"B01AA460HC","Python: Academy - The Stress Free Way To Learning Python Inside & Out - Beginners Guide (FREE Books, Python Programming For Beginners, Python For Informatics)","Academy, IT","8.4.2016"
"B01AB3G496","Introducing Go: Build Reliable, Scalable Programs","Doxsey, Caleb","27.1.2018"
"B01AC7TGAA","Elasticsearch: Ein praktischer Einstieg (German Edition)","Hopf, Florian","30.1.2020"
"B01AHIRDP4","Praxisbuch IT-Dokumentation: Vom Betriebshandbuch bis zum Dokumentationsmanagement – die Dokumentation im Griff (German Edition)","Reiss, Manuela","21.3.2016"
"B01AHJAGXY","AngularJS & Ionic Framework: Hybride App-Entwicklung mit JavaScript und HTML5 (German Edition)","Weiße, Bengt","21.3.2016"
"B01AI0NKRG","Extending SaltStack","Hall, Joseph","19.8.2017"
"B01AWDG5KI","101 Life-Hacks: Genial-einfache Alltagstricks, die Ihr Leben in 45 Minuten 100% leichter machen (German Edition)","Missou, Madame","26.4.2017"
"B01AWPG2H2","Angewandte Statistik: Methodensammlung mit R (German Edition)","Jürgen Hedderich","21.1.2019"
"B01B41YKOU","SEO: 2016: Search Engine Optimization, Internet Marketing Strategies & Content Marketing (Google Adwords, Google Analytics, Wordpress, E-Mail Marketing, ... Marketing, E-Commerce, Inbound Marketing)","Richardson, J.P.","21.3.2016"
"B01B6WS86I","Building Maintainable Software, Java Edition: Ten Guidelines for Future-Proof Code","Visser, Joost","21.3.2016"
"B01B8AYFW4","Langlebige Software-Architekturen: Technische Schulden analysieren, begrenzen und abbauen (German Edition)","Lilienthal, Carola","8.1.2017"
"B01BFD2Z2G","Learning Continuous Integration with Jenkins","Pathania, Nikhil","12.2.2017"
"B01BFHX148","Docker: Webseiten mittels Containerarchitektur erstellen (shortcuts 172) (German Edition)","Sambale, Sascha","24.3.2016"
"B01BO2A2GO","ISO 29119 - Die Softwaretest-Normen verstehen und anwenden (German Edition)","Daigl, Matthias","21.3.2016"
"B01BX98KB2","A Field Guide To Continuous Delivery","Mason, Scott","12.2.2017"
"B01BYFJLHW","Mastering SoapUI","Nandan, Pranai","8.1.2017"
"B01CC7B3LS","Python: Python in 8 Hours, Python for Beginners, Learn Python fast! A Smart way to learn Python, Python programming, Python in easy steps: A Beginner's Guide, Fast & Easy!","Yao, Ray","8.4.2016"
"B01CGES3YM","Cloud-Services testen: Von der Risikobetrachtung zu wirksamen Testmaßnahmen (German Edition)","Blokland, Kees","21.3.2016"
"B01CR04KBU","Python kinderleicht!: Einfach programmieren lernen – nicht nur für Kids (German Edition)","Briggs, Jason","8.4.2016"
"B01CSLI6KO","Learning SaltStack - Second Edition","Myers, Colton","19.8.2017"
"B01CT0DLEU","Software Automation Testing Secrets Revealed","Palani, Narayanan","12.2.2017"
"B01CYJCKPM","R kompakt: Der schnelle Einstieg in die Datenanalyse (Springer-Lehrbuch) (German Edition)","Daniel Wollschläger","3.1.2019"
"B01D3U67UA","Java: The Ultimate Guide to Learn Java Programming and Computer Hacking (java for beginners, java for dummies, java apps, hacking) (HTML, Javascript, Programming, Developers, Coding, CSS, PHP Book 2)","Hoffman, Peter","21.3.2016"
"B01DNTLD8C","Continuous Delivery: Der pragmatische Einstieg (German Edition)","Wolff, Eberhard","8.1.2017"
"B01DYB4TG2","Electric and Hybrid Vehicles","Denton, Tom","31.1.2019"
"B01EPA2A0S","Go Exercises in Plain Language: Volume 2 Arrays and Slices (Supplemental Exercises For Golang Students)","de Araujo, Tony","27.1.2018"
"B01ETI601G","Ethereum (2016 Edition): Questions and Answers","Duckett, George","17.4.2017"
"B01EYZVJCY","Go Exercises in Plain Language: Volume 1 Variables, Control Flow, Basic Functions (Supplemental Exercises For Golang Students)","de Araujo, Tony","27.1.2018"
"B01FATC4Q8","Süße Low Carb Rezepte: 40 köstliche Rezepte (Low Carb Rezepte, abnehmen, gesund, einfach, süß) (German Edition)","Klein, Oliver","12.5.2016"
"B01FKDTW3W","Applied Survival Analysis Using R (Use R!)","Moore, Dirk F.","21.1.2019"
"B01FY63WRC","AWS Well-Architected Framework (AWS Whitepaper) - November 2017","Amazon Web Services","6.12.2017"
"B01GGQKXOE","Effective DevOps: Building a Culture of Collaboration, Affinity, and Tooling at Scale","Davis, Jennifer","31.3.2017"
"B01GGQKXP8","Learning Ratpack: Simple, Lean, and Powerful Web Applications","Woods, Dan","13.3.2017"
"B01GK39S4E","Implementing Oracle Integration Cloud Service: Understand everything you need to know about Oracle's Integration Cloud Service and how to utilize it optimally for your business","Molken, Robert van","28.4.2017"
"B01GQCQ8OW","Go Programming Blueprints: Build real-world, production-ready solutions in Go using cutting-edge technology and techniques, 2nd Edition","Ryer, Mat","27.1.2018"
"B01GUG9ZNU","Infrastructure as Code: Managing Servers in the Cloud","Morris, Kief","13.3.2017"
"B01GVCRF6M","ggplot2: Elegant Graphics for Data Analysis (Use R!)","Wickham, Hadley","21.1.2019"
"B01GXUF1N6","Etherum Mining: Das Praxishandbuch: Schritt-für-Schritt zum Ether Mining (German Edition)","Lorenz, Markus","17.4.2017"
"B01HQTWMYO","Cassandra: The Definitive Guide: Distributed Data at Web Scale","Carpenter, Jeff","13.3.2017"
"B01IHOVFIQ","Go Design Patterns","Contreras, Mario Castro","27.1.2018"
"B01IRD0LBO","Mastering SaltStack - Second Edition","Hall, Joseph","19.8.2017"
"B01JLBMCAY","Learning Vue.js 2: Learn how to build amazing and complex reactive web applications easily with Vue.js","Filipova, Olga","10.3.2018"
"B01JP32FD2","Angewandte Statistik mit R: Eine Einführung für Ökonomen und Sozialwissenschaftler (German Edition)","Reiner Hellbrück","21.1.2019"
"B01KB0BRAA","Vitalik Buterin: Q&A: An Interview with the Inventor of Ethereum (Q&A Interviews Book 1)","Kennedy, Robert","17.4.2017"
"B01L91SSH0","Polyglottes Programmieren in Java Core (shortcuts 197) (German Edition)","Dienst, Johannes","11.3.2017"
"B01L9W8CVG","The Hitchhiker's Guide to Python: Best Practices for Development","Reitz, Kenneth","4.4.2020"
"B01LPRN11G","Machine Learning With Go: Implement Regression, Classification, Clustering, Time-series Models, Neural Networks, and More using the Go Programming Language","Whitenack, Daniel","27.1.2018"
"B01LVVLYYS","Octa Marathon Guide: 1z0-599: Practice problems on WebLogic Server 12c Essentials","LMG","12.2.2017"
"B01LW7KXRG","Cost Optimization Pillar: AWS Well-Architected Framework (AWS Whitepaper)","Amazon Web Services","6.12.2017"
"B01LXGO7GH","Smart Contracts: The Essential Guide to Using Blockchain Smart Contracts for Cryptocurrency Exchange (Smart Contracts, Investing in Ethereum, Blockchain, Fintech)","Reed, Jeff","17.4.2017"
"B01LZXTZ48","Amazon Echo: The Complete Amazon Echo User Guide - Plus 14 Must Know Alexa Tips And Tricks! (Amazon Echo, Alexa, Amazon Echo User Guide)","Rodgers,Frank","3.3.2017"
"B01M2DA8A7","Building Microservices with Go: Develop seamless, efficient, and robust microservices with Go","Jackson, Nic","27.1.2018"
"B01M349ZQM","Amazon Echo - Das ultimative Handbuch: Anleitung, Alexa-App, Skills, Smart Home, Sprachbefehle, IFTTT, uvm. - Edition 2018 (German Edition)","Schillerhof, Tom","3.3.2017"
"B01M698YT4","Ansible Tower on AWS (AWS Quick Start)","Whitepapers, AWS","12.7.2017"
"B01M9ASFQ3","The DevOps Handbook: How to Create World-Class Agility, Reliability, and Security in Technology Organizations","Kim, Gene","29.7.2017"
"B01M9E46L1","Die Blockchain Bibel: DNA einer revolutionären Technologie (German Edition)","BTC-ECHO","17.4.2017"
"B01MD0T33X","Jenkins on AWS (AWS Whitepaper)","Whitepapers, AWS","8.12.2017"
"B01MRQXRW4","Reliability Pillar: AWS Well-Architected Framework (AWS Whitepaper)","Whitepapers, AWS","6.12.2017"
"B01MS2MOFP","Go Cookbook: Build modular, readable, and testable applications in Go","Torres, Aaron","27.1.2018"
"B01MSOXUMI","Ansible for DevOps: Everything You Need to Know to Use Ansible for DevOps, Second Edition, Revised and Enlarged","Johnson, David","12.7.2017"
"B01MSSLHBX","Performance Efficiency Pillar: AWS Well-Architected Framework (AWS Whitepaper)","Whitepapers, AWS","6.12.2017"
"B01MTN4509","Lustiges Taschenbuch Nr. 488: Läuft bei mir! (German Edition)","Disney, Walt","15.12.2016"
"B01MUMN3BL","Amazon Echo - Das umfangreiche Handbuch für Echo, Echo Dot und Alexa: Schritt für Schritt Anleitungen, Skills, IFTTT, wichtige Einstellungen, Easter Eggs, uvm. (German Edition)","Fuchs, Martin","3.3.2017"
"B01MXRQFUX","Security Pillar: AWS Well-Architected Framework (AWS Whitepaper)","Whitepapers, AWS","6.12.2017"
"B01MZGK6E5","Amazon Echo - Alexa zieht ein: Das komplette Handbuch (German Edition)","Gann, Markus","10.3.2017"
"B01N5RCC3V","Mike's Guides to Learning Boto3 Volume 1: Amazon AWS Connectivity and Basic VPC Networking","Kane, Mike","13.2.2020"
"B01N6VAO4P","Vue.js 2 Cookbook: Build modern, interactive web applications with Vue.js","Passaglia, Andrea","10.3.2018"
"B01N76NGGX","Data Wrangling with R (Use R!)","Boehmke, Ph.D., Bradley C.","21.1.2019"
"B01N7HQORC","bookdown: Authoring Books and Technical Documents with R Markdown (Chapman & Hall/CRC The R Series)","Xie, Yihui","21.1.2019"
"B01N7J6EKH","Alexa: 272 Funny Easter Egg Questions (Amazon Echo, Amazon Dot, Amazon Alexa)","Perner, Mark","3.3.2017"
"B01N9S0CZN","Angular 5: From Theory To Practice: Build the web applications of tomorrow using the new Angular web framework from Google.","Hussain, Asim","29.7.2017"
"B01N9ZUHBA","Beginning Angular with Typescript (updated to Angular 9)","Lim, Greg","29.7.2017"
"B01NAIU6FU","Blockchain. Technologien, Innovationen und Anwendungen: Was verbirgt sich hinter der Blockchain-Technologie und was sind ihre Implikationen für die Effizienz ... Aufbau der Gesellschaft? (German Edition)","Zepf, Tobias","17.4.2017"
"B01NAJAEN5","R for Data Science: Import, Tidy, Transform, Visualize, and Model Data","Wickham, Hadley","21.1.2019"
"B06WW2YF3N","Ethereum (2017 Edition): Questions and Answers","Duckett, George","25.4.2017"
"B06X9CLWLJ","Wireless Hacking: How to Hack Wireless Networks (Hacking, How to Hack, Penetration testing, Basic Security, Kali Linux book Book 1)","Lane, Evan","20.3.2017"
"B06XBCJHDX","A Practical Guide to Continuous Delivery","Wolff, Eberhard","13.3.2017"
"B06XCRQQRK","Go in Plain Language: Volume 3 - intro to Structs, Maps, Interfaces, Variadic Functions (Supplemental Exercises for Golang Students)","de Araujo, Tony","27.1.2018"
"B06XDTJRBJ","Jenkins kurz & gut (O'Reillys Taschenbibliothek) (German Edition)","Behrendt, Mario","29.7.2017"
"B06XJZQRPS","Der Blockchain-Fortschritt: Wie Blockchain, Smart Contracts und Bitcoin die Gesellschaft und Ihr tägliches Leben verändern werden (kompletter Guide zu ... Ethereum und Fintech) (German Edition)","Lang, Anton","25.4.2017"
"B06XT2S2CM","A Beginner’s Guide To Ethereum:  Blockchain Decentralized App Platform & Cryptocurrency","Vasiliev, Vladik","17.4.2017"
"B0711KDB8N","DevOps with Kubernetes: Accelerating software delivery with container orchestrators","Saito, Hideto","20.1.2019"
"B0718WWM6Y","Go Systems Programming: Master Linux and Unix system level programming with Go","Tsoukalos, Mihalis","27.1.2018"
"B071D5LKQC","Python Crashkurs: Eine praktische, projektbasierte Programmiereinführung (German Edition)","Matthes, Eric","8.3.2020"
"B071K4HWMT","Building Web Components with TypeScript and Angular 4","Scarpino, Matthew","29.7.2017"
"B071K9RT9Z","Text Mining with R: A Tidy Approach","Silge, Julia","21.1.2019"
"B071LFLBCB","Network Programming with Go: Essential Skills for Using and Securing Networks","Newmarch, Jan","27.1.2018"
"B071NXCNYX","Angular 4: Von den Grundlagen zum Onlineshop. Ein Workshop. Mit Pizza. (German Edition)","Korta, Michael","29.7.2017"
"B071X728SN","Ethereum: The Blueprint on How to Buy, Sell and Make Money with Ethereum in 1 Day (Ethereum, Ether, ETH, Cryptocurrency, Ethereum Investing, Fintech, Bitcoin, Money)","Gildstein, Adam","20.9.2017"
"B071X9KT1D","R for Everyone: Advanced Analytics and Graphics (Addison-Wesley Data & Analytics Series)","Lander, Jared P.","21.1.2019"
"B0725B8MYW","Learning Functional Programming in Go: Change the way you approach your applications using functional programming in Go","Sheehan, Lex","27.1.2018"
"B0725W1HCJ","Grundlagen der Datenanalyse mit R: Eine anwendungsorientierte Einführung (Statistik und ihre Anwendungen) (German Edition)","Daniel Wollschläger","3.1.2019"
"B072J4BWX1","Cloud Native Programming with Golang: Develop microservice-based high performance web apps for the cloud with Go","Andrawos, Mina","27.1.2018"
"B072R4FJ45","Go: Design Patterns for Real-World Projects","Vivien, Vladimir","27.1.2018"
"B072TS9ZQZ","The Kubernetes Book: Updated Feb 2020","Poulton, Nigel","1.4.2018"
"B072XT1989","Angular: Grundlagen, fortgeschrittene Techniken und Best Practices mit TypeScript - ab Angular 4, inklusive NativeScript und Redux (iX Edition) (German Edition)","Woiwode, Gregor","24.8.2017"
"B073FWK8V8","Angular 4: Pocket Primer (Pocket Primer Series)","Campesato, Oswald","29.7.2017"
"B073QVFWS6","Vue.js 2 and Bootstrap 4 Web Development: Build Responsive SPAs with Bootstrap 4, Vue.js 2, and Firebase","Filipova, Olga","1.4.2018"
"B0742NH2SG","Concurrency in Go: Tools and Techniques for Developers","Cox-Buday, Katherine","27.1.2018"
"B07466YDK7","Learn Angular 4 Fast: Over 340 pages. 70 example mini-projects.","Clow, Marcus","29.7.2017"
"B074S4G1L5","Serious Python: Black-Belt Advice on Deployment, Scalability, Testing, and More","Danjou, Julien","8.3.2020"
"B0753KXKDH","Isomorphic Go: Learn how to build modern isomorphic web applications using the Go programming language, GopherJS, and the Isomorphic Go toolkit","Balasubramanian, Kamesh","27.1.2018"
"B0756FCH81","The Majesty of Vue.js 2","Maniatis, Kostas ","10.3.2018"
"B0758ZYVVN","Kafka: The Definitive Guide: Real-Time Data and Stream Processing at Scale","Narkhede, Neha","18.5.2020"
"B075G373MJ","Kubernetes: Up and Running: Dive into the Future of Infrastructure","Hightower, Kelsey","3.5.2018"
"B075GW8WLS","Vue: Step-By-Step Guide To Mastering Vue.js From Beginner To Advanced (Vue.js, Learning Vue js 2)","Lopez, Lionel","10.3.2018"
"B075R98NN6","Statistik mit R: Eine praxisorientierte Einführung in R (Animals) (German Edition)","Zuckarelli, Joachim","3.1.2019"
"B075TBM9KS","Data Structures & Algorithms In Go","Jain, Hemant","27.1.2018"
"B075X4LT6K","Python for Data Analysis: Data Wrangling with Pandas, NumPy, and IPython","McKinney, Wes","8.3.2020"
"B075Z386F6","Machine Learning with the Elastic Stack: Expert techniques to integrate machine learning with distributed search and analytics","Collier, Rich","30.1.2020"
"B076PKXT4V","Statistik mit R für Dummies (German Edition)","Schmuller, Joseph","3.1.2019"
"B076T2GZB1","Vue.js 2 Web Development Projects: Learn Vue.js by building 6 web apps","Chau, Guillaume","1.4.2018"
"B076Z8L9FR","Insane Productivity for Lazy People: A Complete System for Becoming Incredibly Productive","Sedniev, Andrii","18.5.2020"
"B0772RJGWH","Vue.js Programming by Example","Kurniawan, Agus","1.4.2018"
"B077C2YK9T","Der Ernährungskompass: Das Fazit aller wissenschaftlichen Studien zum Thema Ernährung (German Edition)","Kast, Bas","29.9.2019"
"B077NRSDSH","High-Performance Computing Lens: AWS Well-Architected Framework (AWS Whitepaper)","Whitepapers, AWS","6.12.2017"
"B077NTC6S5","Operational Excellence Pillar: AWS Well-Architected Framework (AWS Whitepaper)","Whitepapers, AWS","6.12.2017"
"B077NWT51R","Serverless Applications Lens: AWS Well-Architected Framework (AWS Whitepaper)","Whitepapers, AWS","6.12.2017"
"B077THLFCG","R für Data Science: Daten importieren, bereinigen, umformen, modellieren und visualisieren (Animals) (German Edition)","Wickham, Hadley","29.1.2019"
"B077VXPSL8","blogdown: Creating Websites with R Markdown (Chapman & Hall/CRC The R Series)","Xie, Yihui","21.1.2019"
"B077WWRK8B","Linux Basics for Hackers: Getting Started with Networking, Scripting, and Security in Kali","OccupyTheWeb","6.4.2019"
"B07888W5M8","R für Dummies (German Edition)","de Vries, Andrie","3.1.2019"
"B078HXNZX9","Go in 24 Hours, Sams Teach Yourself: Next Generation Systems Programming with Golang","Ornbo, George","8.2.2018"
"B078NZ2LZB","Vue.js 2.x by Example: Example-driven guide to build web apps with Vue.js for beginners","Street, Mike","1.4.2018"
"B078YH9PFR","Datenvisualisierung mit R: 111 Beispiele (German Edition)","Thomas Rahlf","21.1.2019"
"B079ZZVSCS","Microservices Recipes: Technology Overview","Wolff, Eberhard","10.4.2020"
"B07B8DCCN7","Flask Web Development: Developing Web Applications with Python","Grinberg, Miguel","4.4.2020"
"B07BHFSRKS","Angewandte Statistik: Methodensammlung mit R (German Edition)","Jürgen Hedderich","21.1.2019"
"B07C3PP6TQ","Frohe Botschaft: Es steht nicht gut um die Menschheit – aber besser als jemals zuvor (German Edition)","Wüllenweber, Walter","25.10.2018"
"B07CVTDYCF","Microsoft Blend Complete Self-Assessment Guide","Blokdyk, Gerardus","6.10.2019"
"B07DQPSSYQ","Einführung in die Statistik: Theorie und Praxis mit R (German Edition)","Andreas Handl","21.1.2019"
"B07G1CS6Z1","R Markdown: The Definitive Guide (Chapman & Hall/CRC The R Series)","Xie, Yihui","21.1.2019"
"B07G9RGQVF","Robot Framework Second Edition","Blokdyk, Gerardus","20.1.2020"
"B07H7M3SMN","Reproducible Research with R and R Studio (Chapman & Hall/CRC The R Series)","Gandrud, Christopher","21.1.2019"
"B07HM7LC41","Data Visualization and Exploration with R: A practical guide to using R, RStudio, and Tidyverse for data visualization, exploration, and data science applications","Pimpler, Eric","21.1.2019"
"B07J43H42Z","The Linux Command Line, 2nd Edition: A Complete Introduction","Shotts, William","8.3.2020"
"B07J4521M3","Python Crash Course, 2nd Edition: A Hands-On, Project-Based Introduction to Programming","Matthes, Eric","8.3.2020"
"B07JNP5MGX","Deep Learning mit R und Keras: Das Praxis-Handbuch von Entwicklern von Keras und RStudio (mitp Professional) (German Edition)","François Chollet","21.1.2019"
"B07JPL9K64","R Graphics Cookbook: Practical Recipes for Visualizing Data","Chang, Winston","21.1.2019"
"B07K28N45G","Python 3: Programmieren für Einsteiger: Der leichte Weg zum Python-Experten (Einfach Programmieren lernen 2) (German Edition)","Bonacina, Michael","8.2.2020"
"B07KMDCHT2","Programming Skills for Data Science: Start Writing Code to Wrangle, Analyze, and Visualize Data with R (Addison-Wesley Data & Analytics Series)","Freeman, Michael","21.1.2019"
"B07KRNP2BB","Analyzing Baseball Data with R, Second Edition (Chapman & Hall/CRC The R Series)","Marchi, Max","21.1.2019"
"B07MC18PTX","Advanced R","Wickham, Hadley","21.1.2019"
"B07MNHXB5T","DEVOPS MONITORING TOOL vs. MARKET DEMAND TREND: REPORT 2","PUBLISHERS, CURIOSITY","16.9.2019"
"B07N1S1PS5","Wahnsinn Kreuzfahrt: Gefahr für Natur und Mensch (Politik) (German Edition)","Meyer-Hentrich, Wolfgang","20.3.2019"
"B07NDBGMFP","Kibana 7 Quick Start Guide: Visualize your Elasticsearch data with ease","Srivastava, Anurag","30.1.2020"
"B07NJ8PN8Z","Vue.js kurz & gut (German Edition)","Peterke, Lars","1.5.2020"
"B07QFCC7MH","Head First Go","McGavren, Jay","18.5.2020"
"B07QJCY2RX","Grundeinkommen und Menschenwürde: Ein Weckruf für mehr Selbstbestimmung, Solidarität und Plutokratieabwehr (German Edition)","Brüne Schloen","13.6.2019"
"B07QMQTT5F","Elasticsearch 7.0 Cookbook: Over 100 recipes for fast, scalable, and reliable search for your enterprise, 4th Edition","Paro, Alberto","30.1.2020"
"B07SN9VH7V","Learning Elastic Stack 7.0: Distributed search, analytics, and visualization using Elasticsearch, Logstash, Beats, and Kibana, 2nd Edition","Shukla, Pranav","30.1.2020"
"B07V4SQR6T","Learning Kibana 7: Build powerful Elastic dashboards with Kibana's data visualization capabilities, 2nd Edition","Srivastava, Anurag","30.1.2020"
"B07V5W9QGG","Advanced Elasticsearch 7.0: A practical guide to designing, indexing, and querying advanced distributed search engines","Wong, Wai Tak","30.1.2020"
"B07VG4R5HR","Django for Professionals: Production websites with Python & Django","Vincent, William S.","10.4.2020"
"B07Y5N8KVQ","Fullstack Vue: The Complete Guide to Vue.js","Djirdeh, Hassan","1.5.2020"
"B07ZBCP27J","Elasticsearch 7 Quick Start Guide: Get up and running with the distributed search and analytics capabilities of Elasticsearch","Srivastava, Anurag","30.1.2020"
"B07ZTQKF3Q","Unsere Welt neu denken: Eine Einladung (German Edition)","Göpel, Maja","29.2.2020"
"B081742PVZ","Webanwendungen erstellen mit Vue.js: MVVM-Muster für konventionelle und Single-Page-Webseiten (German Edition)","Ralph Steyer","18.5.2020"
"B082PNW8M6","Elasticsearch: Interview QA","Kuriosity, Linux","30.1.2020"
"B082Z9KBVT","Build a Website With Django 3: A complete introduction to Django 3","George, Nigel","4.4.2020"
"B0841473HZ","Elastic stack 7.5 workshop","Toshev, Martin","30.1.2020"
"B084WRLDSB","Django 3 Web Development Cookbook: Actionable solutions to common problems in Python web development, 4th Edition","Bendoraitis, Aidas","4.4.2020"
